{
  "model": "StudentThesisResults",
  "title": "thesis instructors ",
  "columns": [
    {
      "name": "instructor/familyName",
      "property": "instructorFamilyName",
      "hidden": true,
      "title": "Theses.InstructorFamilyName"
    },
    {
      "name": "instructor/givenName",
      "property": "instructorGivenName",
      "title": "Theses.InstructorFullName",
      "formatter": "TemplateFormatter",
      "formatString": "${instructorFamilyName} ${instructorGivenName}"
    },
    {
      "name": "instructor/category",
      "property": "instructorCategory",
      "title": "Theses.InstructorCategory"
    },
    {
      "name": "student/person/familyName",
      "property": "familyName",
      "hidden": true,
      "title": "Theses.FamilyName"
    },
    {
      "name": "student/person/givenName",
      "property": "givenName",
      "title": "Theses.FullΝame",
      "formatter": "TemplateFormatter",
      "formatString": "${familyName} ${givenName}"
    },
    {
      "name": "formattedGrade",
      "property": "instructorFormattedGrade",
      "title": "Theses.InstructorFormattedGrade"
    },
    {
      "name":"instructor/id",
      "property": "id",
      "formatter": "ActionLinkFormatter",
      "actions" : [
        {
          "title": "Labels.PreviewLink",
          "href": "#/instructors/${id}/dashboard/overview"
        }
      ]
    }
  ]
}
