{
  "model": "ExamPeriods",
  "title": "Settings.EditItem",
  "settings": {
    "i18n": {
      "el": {
        "Unique Identifier": "Μοναδικός αναγνωριστικός κωδικός",
        "Permitted academic Periods": "Επιτρεπόμενες ακαδημαϊκές περίοδοι",
        "Repetitive": "Επαναληπτική",
        "Set the name of this item": "Ορίστε την ονομασία του στοιχείου",
        "Set an alternate name for this item. This name will be used to identify items": "Ορίστε μία εναλλακτική ονομασία για αυτό το στοιχείο. Αυτό το όνομα θα χρησιμοποιηθεί για την ταυτοποίηση του στοιχείου",
        "Set if this exam period is for repetitive examinations": "Ορίστε αν η εξεταστική περίοδος είναι επαναληπτική",
        "Select the academic periods this exam period is valid for." : "Ορίστε τις ακαδημαϊκές περιόδους για τις οποίες είναι έγκυρη η εξεταστική αυτή."
      }
    }
  },
  "components": [
    {
      "label": "Tabs",
      "type": "tabs",
      "key": "tabs1",
      "path": "tabs1",
      "input": false,
      "components": [
        {
          "label": "General Information",
          "components": [
            {
              "type": "fieldset",
              "components": [
                {
                  "label": "HTML",
                  "tag": "h5",
                  "className": "font-weight-normal",
                  "content": "{{form.subtitle}}",
                  "refreshOnChange": false,
                  "tableView": false,
                  "key": "subtitle",
                  "type": "htmlelement",
                  "input": false
                },
                {
                  "columns": [
                    {
                      "components": [
                        {
                          "label": "Unique Identifier",
                          "labelPosition": "top",
                          "widget": {
                            "type": "input"
                          },
                          "validate": {
                            "required": true
                          },
                          "key": "id",
                          "type": "number",
                          "input": true,
                          "disabled": true,
                          "description": "Set the name of this item"
                        }
                      ],
                      "width": 6
                    },
                    {
                      "components": [
                        {
                          "label": "Name",
                          "labelPosition": "top",
                          "widget": {
                            "type": "input"
                          },
                          "validate": {
                            "required": true
                          },
                          "key": "name",
                          "type": "textfield",
                          "input": true,
                          "disabled": false,
                          "description": "Set the name of this item"
                        }
                      ],
                      "width": 6
                    },
                    {
                      "components": [
                        {
                          "label": "AlternateName",
                          "labelPosition": "top",
                          "widget": {
                            "type": "input"
                          },
                          "validate": {
                            "required": true,
                            "pattern": "^.{1,50}$",
                            "customMessage": "This field must contain up to 50 characters. A value is required."
                          },
                          "key": "alternateName",
                          "type": "textfield",
                          "input": true,
                          "description": "Set an alternate name for this item. This name will be used to identify items"
                        }
                      ],
                      "width": 6
                    },
                    {
                      "components": [
                        {
                          "label": "Permitted academic Periods",
                          "labelPosition": "top",
                          "widget": "choicesjs",
                          "dataSrc": "url",
                          "data": {
                            "url": "AcademicPeriods?$orderby=id desc&$select=id,name",
                            "headers": []
                          },
                          "selectThreshold": 0.3,
                          "template": "<span class='d-block pr-5 text-truncate'>{{ item.name }}</span>",
                          "selectValues": "value",
                          "type": "select",
                          "tableView": true,
                          "multiple": true,
                          "lazyLoad": false,
                          "key": "academicPeriods",
                          "input": true,
                          "description": "Select the academic periods this exam period is valid for."
                        }
                      ],
                      "width": 6
                    },
                    {
                      "components": [
                        {
                          "label": "Repetitive",
                          "labelPosition": "top",
                          "key": "isLate",
                          "input": true,
                          "description": "Set if this exam period is for repetitive examinations",
                          "tableView": false,
                          "type": "checkbox",
                          "defaultValue": false
                        }
                      ],
                      "width": 6
                    }
                  ],
                  "customClass": "text-dark",
                  "hideLabel": true,
                  "type": "columns",
                  "input": false
                }
              ]
            }
          ]
        },
        {
          "legend": "Other languages",
          "key": "fieldSet",
          "type": "fieldset",
          "input": false,
          "label": "Other languages",
          "components": [
            {
              "label": "",
              "hideLabel": true,
              "key": "locales",
              "type": "datagrid",
              "disableAddingRemovingRows": true,
              "input": true,
              "customClass": "fix-panel-for-locales",
              "components": [
                {
                  "collapsible": false,
                  "hideLabel": true,
                  "key": "panel",
                  "type": "panel",
                  "title": "",
                  "hideTitle": true,
                  "input": false,
                  "tableView": false,
                  "components": [
                    {
                      "label": "Language",
                      "tableView": true,
                      "key": "inLanguage",
                      "disabled": "true",
                      "type": "textfield",
                      "input": true
                    },
                    {
                      "label": "Name",
                      "labelPosition": "top",
                      "widget": {
                        "type": "input"
                      },
                      "validate": {
                        "required": true
                      },
                      "key": "name",
                      "type": "textfield",
                      "input": true,
                      "disabled": false,
                      "description": "Set the name of this item"
                    },
                    {
                      "label": "AlternateName",
                      "labelPosition": "top",
                      "widget": {
                        "type": "input"
                      },
                      "validate": {
                        "required": true,
                        "pattern": "^.{1,50}$",
                        "customMessage": "This field must contain up to 50 characters. A value is required."
                      },
                      "key": "alternateName",
                      "type": "textfield",
                      "input": true,
                      "description": "Set an alternate name for this item. This name will be used to identify items"
                    }
                  ]
                }
              ]
            }
          ]
        }
      ]
    }
  ]
}
