{
  "model": "Students",
  "settings": {
    "i18n": {
      "el": {
        "Set the student's given name": "Ορίστε το όνομα του φοιτητή",
        "Set the student's family name": "Ορίστε το επώνυμο του φοιτητή",
        "Set the given name of the student's father": "Ορίστε το πατρώνυμο του φοιτητή",
        "Set the given name of the student's mother": "Ορίστε το μητρώνυμο του φοιτητή",
        "Select the student's status. By default the new student will become active.": "Επιλέξτε την κατάσταση του φοιτητή. Ως προεπιλογή, ο νέος φοιτητής θα είναι ενεργός.",
        "Select the academic year the student was enrolled. It defaults to the current academic year": "Επιλέξτε το ακαδημαϊκό έτος εγγραφής. Ως προεπιλογή ορίζεται το τρέχον ακαδημαϊκό έτος",
        "Select the academic period the student was enrolled. It defaults to the current academic period": "Επιλέξτε την ακαδημαϊκή περίοδο εγγραφής. Ως προεπιλογή ορίζεται η τρέχουσα ακαδημαϊκή περίοδος",
        "Select the semester the student is being enrolled to.": "Επιλέξτε το εξάμηνο εγγραφής του φοιτητή.",
        "Select the full date the student is being enrolled. It defaults to the current date": "Επιλέξτε την πλήρη ημερομηνία εγγραφής του φοιτητή. Ως προεπιλογή ορίζεται η σημερινή ημερομηνία.",
        "Set the descending index the student got inscribed. This field can only contain numeric values": "Ορίστε τον φθίνον αριθμό εισαγωγής του φοιτητή. Το πεδίο μπορεί να περιέχει μόνο αριθμητικές τιμές.",
        "This is the number of credits the student gathered. This field can only contain numeric values": "Είναι ο αριθμός των μορίων που συγκέντρωσε ο φοιτητής κατά την διαδικασία εισαγωγής του. Το πεδίο αυτό μπορεί να περιέχει μόνο αριθμητικές τιμές.",
        "Select the department of the student. It defaults to your current department": "Επιλέξτε το τμήμα που ανήκει. Ως προεπιλογή ορίζεται το τρέχον τμήμα σας.",
        "Select the study program the student will be admitted to. This will determine the courses available to the student, the graduation title, the available specialties and the study semesters. It defaults to the last active study program" : "Επιλέξτε το πρόγραμμα σπουδών στο οποίο φοιτά ο φοιτητής. Αυτό θα καθορίσει τα μαθήματα που θα είναι διαθέσιμα στον φοιτητή, τον τίτλο πτυχίου, τις διαθέσιμες κατευθύνσεις και τα υποχρεωτικά εξάμηνα φοίτησης. Ως προεπιλογή ορίζεται το τελευταίο ενεργό πρόγραμμα σπουδών",
        "Select the specialty of the student. You can only select specialties defined in the study program the student is admitted to.": "Επιλέξτε την κατεύθυνση του φοιτητή. Μπορείτε να επιλέξετε μόνο κατευθύνσεις που έχουν οριστεί στο πρόγραμμα σπουδών που φοιτά ο φοιτητής."
      }
    }
  },
  "components": [
    {
      "legend": "New student",
      "key": "fieldset",
      "type": "fieldset",
      "input": false,
      "components": [
        {
          "columns": [
            {
              "components": [
                {
                  "label": "Department",
                  "labelPosition": "top",
                  "widget": "choicesjs",
                  "key": "department",
                  "dataSrc": "url",
                  "data": {
                    "url": "LocalDepartments/?$select=id,name&$top=-1&$orderby=name",
                    "headers": []
                  },
                  "template": "{{ item.name }}",
                  "selectValues": "value",
                  "type": "select",
                  "input": true,
                  "lazyLoad": false,
                  "searchEnabled": true,
                  "searchFields":[ "value.id", "value.name" ],
                  "disabled": true,
                  "validate": {
                    "required": true
                  },
                  "description": "Select the department of the student. It defaults to your current department"
                }
              ],
              "width": 9,
              "offset": 0,
              "push": 0,
              "pull": 0
            },
            {
              "components": [
                {
                  "label": "Status",
                  "labelPosition": "top",
                  "widget": "choicesjs",
                  "dataSrc": "url",
                  "data": {
                    "url": "StudentStatuses?$orderby=name",
                    "headers": []
                  },
                  "template": "{{ item.name }}",
                  "selectValues": "value",
                  "key": "studentStatus",
                  "valueProperty": "id",
                  "searchEnabled": false,
                  "type": "select",
                  "input": true,
                  "lazyLoad": false,
                  "defaultValue": "1",
                  "disabled": true,
                  "validate": {
                    "required": true
                  },
                  "description": "Select the student's status. By default the new student will become active."
                }
              ],
              "width": 3,
              "offset": 0,
              "push": 0,
              "pull": 0
            },
            {
              "components": [
                {
                  "label": "Given Name",
                  "key": "person.givenName",
                  "labelPosition": "top",
                  "dataSrc": "url",
                  "widget": {
                    "type": "input"
                  },
                  "validate": {
                    "required": true
                  },
                  "type": "textfield",
                  "input": true,
                  "description": "Set the student's given name"
                }
              ],
              "width": 3,
              "offset": 0,
              "push": 0,
              "pull": 0
            },
            {
              "components": [
                {
                  "label": "Family Name",
                  "labelPosition": "top",
                  "widget": "choicesjs",
                  "dataSrc": "url",
                  "selectValues": "value",
                  "key": "person.familyName",
                  "type": "textfield",
                  "input": true,
                  "validate": {
                    "required": true
                  },
                  "description": "Set the student's family name"
                }
              ],
              "width": 3,
              "offset": 0,
              "push": 0,
              "pull": 0
            },
            {
              "components": [
                {
                  "label": "Father's Name",
                  "key": "person.fatherName",
                  "labelPosition": "top",
                  "widget": "choicesjs",
                  "dataSrc": "url",
                  "selectValues": "value",
                  "type": "textfield",
                  "input": true,
                  "validate": {
                    "required": false
                  },
                  "description": "Set the given name of the student's father"
                }
              ],
              "width": 3,
              "offset": 0,
              "push": 0,
              "pull": 0
            },
            {
              "components": [
                {
                  "label": "Mother's Name",
                  "key": "person.motherName",
                  "labelPosition": "top",
                  "widget": {
                    "type": "input"
                  },
                  "type": "textfield",
                  "input": true,
                  "validate": {
                    "required": false
                  },
                  "description": "Set the given name of the student's mother"
                }
              ],
              "width": 3,
              "offset": 0,
              "push": 0,
              "pull": 0
            },
            {
              "components": [
                {
                  "label": "Student Number",
                  "key": "studentIdentifier",
                  "labelPosition": "top",
                  "type": "number",
                  "input": true,
                  "validate": {
                    "required": false
                  }
                }
              ],
              "width": 3,
              "offset": 0,
              "push": 0,
              "pull": 0
            },
            {
              "components": [
                {
                  "label": "Gender",
                  "labelPosition": "top",
                  "dataSrc": "url",
                  "data": {
                    "url": "Genders?$filter=identifier ne null",
                    "headers": []
                  },
                  "template": "{{ item.name }}",
                  "key": "person.gender",
                  "type": "select",
                  "input": true,
                  "selectValues": "value",
                  "valueProperty": "identifier",
                  "widget": "choicesjs",
                  "searchEnabled": false,
                  "validate": {
                    "required": true
                  }
                }
              ],
              "width": 3,
              "offset": 0,
              "push": 0,
              "pull": 0
            },
            {
              "components": [
                {
                  "label": "Semester",
                  "key": "semester",
                  "labelPosition": "top",
                  "type": "number",
                  "input": true,
                  "validate": {
                    "required": false
                  },
                  "refreshOn": "inscriptionSemester",
                  "lazyLoad": true,
                  "clearOnRefresh": true,
                  "calculateValue": "value = data.inscriptionSemester.id",
                  "hidden": true,
                  "clearOnHide": false,
                  "description": "Select the semester the student should be admitted to."
                }
              ],
              "width": 3,
              "offset": 0,
              "push": 0,
              "pull": 0
            },
            {
              "components": [
                {
                  "label": "Study Program",
                  "labelPosition": "top",
                  "dataSrc": "url",
                  "data": {
                    "url": "StudyPrograms/?$filter=department eq '{{data.department.id}}' and isActive eq 1&$orderby id descending",
                    "headers": []
                  },
                  "template": "{{ item.name }}",
                  "key": "studyProgram",
                  "type": "select",
                  "input": true,
                  "selectValues": "value",
                  "widget": "choicesjs",
                  "searchEnabled": false,
                  "validate": {
                    "required": true
                  },
                  "description": "Select the study program the student will be admitted to. This will determine the courses available to the student, the graduation title, the available specialties and the study semesters. It defaults to the last active study program"
                }
              ],
              "width": 6,
              "offset": 0,
              "push": 0,
              "pull": 0
            },
            {
              "components": [
                {
                  "label": "Study Program Specialty",
                  "labelPosition": "top",
                  "dataSrc": "url",
                  "data": {
                    "url": "studyProgramSpecialties?$top-1&$filter=studyProgram eq {{data.studyProgram.id}}",
                    "headers": []
                  },
                  "template": "{{ item.name }}",
                  "key": "studyProgramSpecialty",
                  "valueProperty": "id",
                  "refreshOn": "studyProgram",
                  "lazyLoad": true,
                  "clearOnRefresh": true,
                  "type": "select",
                  "input": true,
                  "selectValues": "value",
                  "widget": "choicesjs",
                  "searchEnabled": false,
                  "validate": {
                    "required": true
                  },
                  "description": "Select the specialty of the student. You can only select specialties defined in the study program the student is admitted to."
                }
              ],
              "width": 6,
              "offset": 0,
              "push": 0,
              "pull": 0
            },
            {
              "components": [
                {
                  "label": "Graduation Title",
                  "labelPosition": "top",
                  "key": "graduationTitle",
                  "type": "textfield",
                  "input": true,
                  "calculateValue": "value = data.studyProgram.degreeDescription",
                  "refreshOn": "studyProgram",
                  "clearOnRefresh": true,
                  "searchEnabled": false,
                  "disabled" : true
                }
              ],
              "width": 6,
              "offset": 0,
              "push": 0,
              "pull": 0
            }
          ],
          "customClass": "text-dark",
          "type": "columns",
          "input": false
        }
      ]
    },
    {
      "legend": "Inscription Information",
      "key": "fieldset",
      "type": "fieldset",
      "input": false,
      "components": [
        {
          "columns": [
            {
              "components": [
                {
                  "label": "Inscription Year",
                  "labelPosition": "top",
                  "key": "inscriptionYear",
                  "dataType": "object",
                  "dataPath": "id",
                  "validate": {
                    "required": true
                  },
                  "type": "select",
                  "searchEnabled": false,
                  "dataSrc": "url",
                  "data": {
                    "url": "AcademicYears/?$select=id,name,alternateName&$top={{limit}}&$skip={{skip}}&$orderby=id desc",
                    "headers": []
                  },
                  "limit": 20,
                  "template": "{{ item.alternateName }}",
                  "input": true,
                  "lazyLoad": true,
                  "selectValues": "value",
                  "widget": "choicesjs",
                  "description": "Select the academic year the student was enrolled."
                }
              ],
              "width": 3,
              "offset": 0,
              "push": 0,
              "pull": 0
            },
            {
              "components": [
                {
                  "label": "Inscription Period",
                  "labelPosition": "top",
                  "widget": "choicesjs",
                  "dataSrc": "url",
                  "data": {
                    "url": "AcademicPeriods/?$select=id,name",
                    "headers": []
                  },
                  "template": "{{ item.name }}",
                  "selectValues": "value",
                  "key": "inscriptionPeriod",
                  "dataType": "object",
                  "dataPath": "id",
                  "validate": {
                    "required": true
                  },
                  "type": "select",
                  "input": true,
                  "searchEnabled": false,
                  "description": "Select the academic period the student was enrolled. It defaults to the current academic period"
                }
              ],
              "width": 3,
              "offset": 0,
              "push": 0,
              "pull": 0
            },
            {
              "components": [
                {
                  "label": "Inscription semester",
                  "labelPosition": "top",
                  "widget": "choicesjs",
                  "dataSrc": "url",
                  "data": {
                    "url": "Semesters",
                    "headers": []
                  },
                  "template": "{{ item.name }}",
                  "selectValues": "value",
                  "key": "inscriptionSemester.id",
                  "valueProperty": "id",
                  "type": "select",
                  "input": true,
                  "searchEnabled": false,
                  "validate": {
                    "required": true
                  },
                  "description": "Select the semester the student is being enrolled to."
                }
              ],
              "width": 3,
              "offset": 0,
              "push": 0,
              "pull": 0
            },
            {
              "components": [
                {
                  "label": "Inscription date",
                  "labelPosition": "top",
                  "enableTime": false,
                  "customOptions": {
                    "dateFormat": "yyyy-MM-dd",
                    "allowInput": true
                  },
                  "widget": {
                    "type": "calendar"
                  },
                  "validate": {
                    "required": true
                  },
                  "type": "datetime",
                  "format": "dd/MM/yyyy",
                  "input": true,
                  "key": "inscriptionDate",
                  "description": "Select the full date the student is being enrolled. It defaults to the current date"
                }
              ],
              "width": 3,
              "offset": 0,
              "push": 0,
              "pull": 0
            },
            {
              "components": [
                {
                  "label": "Inscription mode",
                  "widget": "choicesjs",
                  "dataSrc": "url",
                  "labelPosition": "top",
                  "searchEnabled": true,
                  "data": {
                    "values": [],
                    "url": "/InscriptionModes?$orderby=name&$top={{limit}}&$skip={{skip}}",
                    "headers": []
                  },
                  "validate": {
                    "required": true
                  },
                  "lazyLoad": false,
                  "limit": 50,
                  "dataType": "object",
                  "idPath": "id",
                  "template": "{{ item.name }}",
                  "selectThreshold": 0.3,
                  "key": "inscriptionMode",
                  "type": "select",
                  "selectValues": "value",
                  "input": true,
                  "disabled": false
                }
              ],
              "width": 6,
              "offset": 0,
              "push": 0,
              "pull": 0
            },
            {
              "components": [
                {
                  "label": "Inscription Mode Category",
                  "widget": "choicesjs",
                  "dataSrc": "url",
                  "defaultValue": "",
                  "labelPosition": "top",
                  "searchEnabled": true,
                  "data": {
                    "values": [],
                    "url": "/InscriptionModeCategories?$top={{limit}}&$skip={{skip}}&$orderby=name",
                    "headers": []
                  },
                  "idPath": "id",
                  "limit": 50,
                  "dataType": "object",
                  "lazyLoad": false,
                  "template": "{{ item.name }}",
                  "selectThreshold": 0.3,
                  "key": "inscriptionModeCategory",
                  "validate": {
                    "required": false
                  },
                  "type": "select",
                  "selectValues": "value",
                  "input": true,
                  "disabled": false
                }
              ],
              "width": 6,
              "offset": 0,
              "push": 0,
              "pull": 0
            },
            {
              "components": [
                {
                  "label": "Inscription index",
                  "labelPosition": "top",
                  "key": "inscriptionIndex",
                  "type": "number",
                  "input": true,
                  "selectValues": "value",
                  "widget": "choicesjs",
                  "validate": {
                    "required": false
                  },
                  "description": "Set the descending index the student got inscribed. This field can only contain numeric values"
                }
              ],
              "width": 3,
              "offset": 0,
              "push": 0,
              "pull": 0
            },
            {
              "components": [
                {
                  "label": "Inscription decision",
                  "labelPosition": "top",
                  "widget": {
                    "type": "input"
                  },
                  "validate": {
                    "required": false
                  },
                  "type": "textfield",
                  "input": true,
                  "key": "inscriptionDecision"
                }
              ],
              "width": 3,
              "offset": 0,
              "push": 0,
              "pull": 0
            },
            {
              "components": [
                {
                  "label": "Inscription Number",
                  "labelPosition": "top",
                  "widget": {
                    "type": "input"
                  },
                  "validate": {
                    "required": false
                  },
                  "type": "number",
                  "input": true,
                  "key": "inscriptionNumber"
                }
              ],
              "width": 3,
              "offset": 0,
              "push": 0,
              "pull": 0
            },
            {
              "components": [
                {
                  "label": "Inscription points",
                  "labelPosition": "top",
                  "widget": {
                    "type": "input"
                  },
                  "validate": {
                    "required": false
                  },
                  "type": "number",
                  "input": true,
                  "key": "inscriptionPoints",
                  "description": "This is the number of credits the student gathered. This field can only contain numeric values"
                }
              ],
              "width": 3,
              "offset": 0,
              "push": 0,
              "pull": 0
            },
            {
              "components": [
                {
                  "label": "Inscription department",
                  "labelPosition": "top",
                  "key": "inscriptionDepartment",
                  "type": "textfield",
                  "input": true,
                  "selectValues": "value",
                  "widget": "choicesjs",
                  "validate": {
                    "required": false
                  }
                }
              ],
              "width": 3,
              "offset": 0,
              "push": 0,
              "pull": 0
            },
            {
              "components": [
                {
                  "label": "Inscription Comments",
                  "labelPosition": "top",
                  "widget": "choicesjs",
                  "selectValues": "value",
                  "key": "inscriptionComments",
                  "type": "textarea",
                  "rows": 3,
                  "input": true,
                  "searchEnabled": false,
                  "validate": {
                    "required": false
                  }
                }
              ],
              "width": 12,
              "offset": 0,
              "push": 0,
              "pull": 0
            }
          ],
          "customClass": "text-dark",
          "hideLabel": true,
          "type": "columns",
          "input": false
        }
      ]
    },
    {
      "type": "button",
      "theme": "btn btn-indigo",
      "label": "Submit",
      "key": "submit",
      "disableOnInvalid": true,
      "input": true
    },
    {
      "components": [
        {
          "input": true,
          "label": "Cancel",
          "tableView": false,
          "key": "cancel",
          "action": "event",
          "disableOnInvalid": false,
          "theme": "secondary",
          "type": "button",
          "event": "cancelEvent",
          "redirect": "/students/",
          "customClass": "pull-right float-right mr-0"
        }
      ],
      "width": 6
    }
  ]
}
