{
  "settings": {
    "i18n": {
      "el": {
        "NotSupportedRuleHelp": "The specified rule has not yet being supported by this editor."
      },
      "en": {
        "NotSupportedRuleHelp": "Ο συγκεκριμένος κανόνας δεν υποστηρίζεται ακόμη από αυτήν την διαδικασία."
      }
    }
  },
  "components": [
    {
      "label": "HTML",
      "content": "<h4>{{instance.t('NotSupportedRule')}}<h4>",
      "refreshOnChange": false,
      "key": "html",
      "type": "htmlelement",
      "input": false,
      "tableView": false
    },
    {
      "type": "button",
      "label": "Submit",
      "key": "submit",
      "disableOnInvalid": true,
      "input": true,
      "tableView": false
    }
  ]
}
