{
  "model": "UpdateStudentGroupActions",
  "settings": {
    "i18n": {
      "el": {
        "Select supergroup": "Επιλογή υπερομάδας",
        "Add program group to students": "Προσθήκη ομάδας προγράμματος σπουδών στους φοιτητές",
        "Select the supergroup in order to see the available groups": "Επιλέξτε την υπερομάδα για να δείτε τις διαθέσιμες ομάδες",
        "Select the study program group to add it to student": "Επιλέξτε την ομάδα του προγράμματος σπουδών η οποία θα προστεθεί στον/-ην φοιτητή/-τρια",
        "Student does not have any available supergroups to register to.": "Ο φοιτητής δεν έχει καμιά διαθέσιμη υπερομάδα προς δήλωση."
      }
    }
  },
  "components": [
    {
      "type": "fieldset",
      "key": "fieldSet",
      "input": false,
      "components": [
        {
          "columns": [
            {
              "components": [
                {
                  "label": "Select supergroup",
                  "labelPosition": "top",
                  "widget": "choicesjs",
                  "dataSrc": "url",
                  "customConditional": "show = !!(data.currentProgram); instance.pristine = !(instance.hasOwnProperty('defaultDownloadedResources') && instance.defaultDownloadedResources.hasOwnProperty('serverCount') && instance.defaultDownloadedResources.serverCount === undefined && instance.hasOwnProperty('selectOptions') && Array.isArray(instance.selectOptions) && instance.selectOptions.length === 0); if(instance.valid !== instance.pristine){instance.valid = instance.pristine; instance.triggerChange();}",
                  "validate": {
                    "required": true,
                    "custom": "instance.pristine = !!(instance.hasOwnProperty('defaultDownloadedResources') && instance.defaultDownloadedResources.hasOwnProperty('serverCount') && instance.defaultDownloadedResources.serverCount === undefined && instance.hasOwnProperty('selectOptions') && Array.isArray(instance.selectOptions) && instance.selectOptions.length > 0); if(valid !== instance.pristine){valid = instance.pristine; instance.triggerChange();}",
                    "customMessage": "Student does not have any available supergroups to register to."
                  },
                  "data": {
                    "url": "/Students/{{ data.object }}/availableProgramGroups",
                    "headers": []
                  },
                  "required": true,
                  "lazyLoad": false,
                  "dataType": "number",
                  "template": "<span class='d-block pr-5 text-truncate'>{{ item.name }}</span>",
                  "selectThreshold": 0.3,
                  "key": "parentGroup",
                  "type": "select",
                  "selectValues": "value",
                  "input": true,
                  "description": "Select the supergroup in order to see the available groups"
                }
              ],
              "width": 8
            },
            {
              "components": [
                {
                  "label": "Add program group to students",
                  "labelPosition": "top",
                  "widget": "choicesjs",
                  "dataSrc": "url",
                  "customConditional": "show = !!(data.currentProgram && data.parentGroup && data.parentGroup.hasOwnProperty('id'));",
                  "data": {
                    "url": "/ProgramGroups?$select=id,name&$filter=program eq {{data.currentProgram}} and groupType/alternateName eq 'simple' and parentGroup eq {{ data.parentGroup && data.parentGroup.id }}&$orderby=name&$top=-1",
                    "headers": []
                  },
                  "lazyLoad": false,
                  "dataType": "number",
                  "multiple": false,
                  "validate": {
                    "required": true
                  },
                  "template": "<span class='d-block pr-5 text-truncate'>{{ item.name }}</span>",
                  "selectThreshold": 0.3,
                  "key": "groups[0]",
                  "type": "select",
                  "selectValues": "value",
                  "input": true,
                  "description": "Select the study program group to add it to student",
                  "refreshOn": "parentGroup"
                }
              ],
              "width": 8
            }
          ],
          "customClass": "text-dark",
          "hideLabel": true,
          "type": "columns",
          "input": false
        }
      ]
    }
  ]
}
