{
    "model": "StudentCourseClass",
    "settings": {
      "i18n": {
        "el": {
          "Class Status": "Κατάσταση Δήλωσης",
          "Select the new student class status.": "Επιλέξτε τη νέα κατάσταση δήλωσης μαθήματος"
        }
      }
    },
    "components": [
      {
        "type": "fieldset",
        "key": "fieldSet",
        "input": false,
        "components": [
          {
            "columns": [
              {
                "components": [
                  {
                    "label": "Class Status",
                    "labelPosition": "top",
                    "widget": "choicesjs",
                    "dataSrc": "url",
                    "data": {
                      "url": "/StudentClassStatuses?$select=id, name",
                      "headers": []
                    },
                    "validate": {
                      "required": true
                    },
                    "lazyLoad": false,
                    "dataType": "object",
                    "dataPath": "id",
                    "template": "<span class='d-block pr-5 text-truncate'>{{ item.name }}</span>",
                    "selectThreshold": 0.3,
                    "key": "status",
                    "type": "select",
                    "selectValues": "value",
                    "input": true,
                    "description": "Select the new student class status."
                  }
                ],
                "width": 8
              }
            ],
            "customClass": "text-dark",
            "hideLabel": true,
            "type": "columns",
            "input": false
          }
        ]
      }
    ]
}
